<?xml version="1.0" encoding="UTF-8" standalone="no"?>
<!-- Created with Inkscape (http://www.inkscape.org/) -->

<svg
   xmlns:dc="http://purl.org/dc/elements/1.1/"
   xmlns:cc="http://creativecommons.org/ns#"
   xmlns:rdf="http://www.w3.org/1999/02/22-rdf-syntax-ns#"
   xmlns:svg="http://www.w3.org/2000/svg"
   xmlns="http://www.w3.org/2000/svg"
   xmlns:sodipodi="http://sodipodi.sourceforge.net/DTD/sodipodi-0.dtd"
   xmlns:inkscape="http://www.inkscape.org/namespaces/inkscape"
   width="611.88495mm"
   height="344.18527mm"
   viewBox="0 0 611.88495 344.18527"
   version="1.1"
   id="svg338"
   inkscape:version="0.92.1 r15371"
   sodipodi:docname="bedroom.svg">
  <defs
     id="defs332">
    <clipPath
       clipPathUnits="userSpaceOnUse"
       id="clipPath911">
      <path
         style="display:inline;fill:#000000;fill-opacity:1;stroke:none;stroke-width:0.26458332px;stroke-linecap:butt;stroke-linejoin:miter;stroke-opacity:1"
         d="m 106.62759,252.41196 25.14467,-11.52464 10.36054,9.54566 -26.42519,11.40823 z"
         id="path913"
         inkscape:connector-curvature="0" />
    </clipPath>
  </defs>
  <sodipodi:namedview
     id="base"
     pagecolor="#ffffff"
     bordercolor="#666666"
     borderopacity="1.0"
     inkscape:pageopacity="0.0"
     inkscape:pageshadow="2"
     inkscape:zoom="0.65956483"
     inkscape:cx="1036.5826"
     inkscape:cy="634.38365"
     inkscape:document-units="mm"
     inkscape:current-layer="layer8"
     showgrid="false"
     inkscape:snap-global="false"
     inkscape:window-width="1920"
     inkscape:window-height="1027"
     inkscape:window-x="-8"
     inkscape:window-y="-8"
     inkscape:window-maximized="1"
     fit-margin-top="0"
     fit-margin-left="0"
     fit-margin-right="0"
     fit-margin-bottom="0"
     borderlayer="true"
     inkscape:pagecheckerboard="true" />
  <metadata
     id="metadata335">
    <rdf:RDF>
      <cc:Work
         rdf:about="">
        <dc:format>image/svg+xml</dc:format>
        <dc:type
           rdf:resource="http://purl.org/dc/dcmitype/StillImage" />
        <dc:title />
      </cc:Work>
    </rdf:RDF>
  </metadata>
  <g
     inkscape:groupmode="layer"
     id="layer6"
     inkscape:label="Walls"
     transform="translate(168.90721,16.411062)"
     sodipodi:insensitive="true">
    <path
       inkscape:connector-curvature="0"
       style="fill:#f5f5f5;fill-opacity:1;stroke:none;stroke-width:0.26458332px;stroke-linecap:butt;stroke-linejoin:miter;stroke-opacity:1"
       d="m 111.88102,-114.99401 -483.80973,38.553725 57.45229,445.256005 422.57784,-217.71436 453.57126,190.5 70.30371,-396.874979 z"
       id="path340" />
  </g>
  <g
     inkscape:groupmode="layer"
     id="layer15"
     inkscape:label="Floor"
     sodipodi:insensitive="true"
     transform="translate(168.90721,16.411062)">
    <path
       id="path340-6-5"
       style="fill:#4388c9;fill-opacity:1;stroke:none;stroke-width:0.26458332px;stroke-linecap:butt;stroke-linejoin:miter;stroke-opacity:1"
       d="M 561.67263,341.60123 108.1012,151.10123 -308.42858,359.74408 86.178575,684.04763 Z"
       inkscape:connector-curvature="0"
       sodipodi:nodetypes="ccccc" />
  </g>
  <g
     inkscape:label="Bowl (Broken)"
     inkscape:groupmode="layer"
     id="layer1"
     sodipodi:insensitive="true"
     transform="translate(168.90721,16.411062)"
     style="display:none">
    <path
       style="fill:#9bbfb8;fill-opacity:1;stroke:none;stroke-width:0.26458332px;stroke-linecap:butt;stroke-linejoin:miter;stroke-opacity:1"
       d="m 300.11887,246.22915 c -3.31351,5.38708 -5.58284,11.20499 -6.98064,17.35881 l 9.51608,3.53563 9.695,-5.9562 4.52115,2.4627 -2.2459,-4.07782 -9.73868,-4.60865 z"
       id="path1330"
       inkscape:connector-curvature="0" />
    <path
       style="fill:#9bbfb8;fill-opacity:1;stroke:none;stroke-width:0.26458332px;stroke-linecap:butt;stroke-linejoin:miter;stroke-opacity:1"
       d="m 324.97868,244.2476 -4.02366,9.08166 2.25836,10.53477 -1.87356,4.26174 0.47371,3.04094 c 0.11456,-0.041 0.23144,-0.0718 0.34593,-0.11312 7.80925,-2.82005 15.4201,-6.52393 22.78715,-11.31352 0,0 -5.16685,-8.02145 -16.18225,-9.83032 l 0.8667,-5.95058 c -1.57063,0.0211 -3.11773,0.13174 -4.65238,0.28843 z"
       id="path1325"
       inkscape:connector-curvature="0" />
    <path
       style="fill:#9bbfb8;fill-opacity:1;stroke:none;stroke-width:0.26458332px;stroke-linecap:butt;stroke-linejoin:miter;stroke-opacity:1"
       d="m 286.77029,287.6279 4.74545,-6.71917 -4.79213,-10.32012 4.61496,-9.04205 c -4.30554,-1.5208 -8.8301,-2.62357 -13.5334,-3.36355 l 1.33373,6.30182 c -10.44252,1.1326 -16.12345,8.99987 -16.12345,8.99987 7.42893,5.51529 15.30011,10.30662 23.75484,14.1432 z"
       id="path1257-3-3"
       inkscape:connector-curvature="0" />
  </g>
  <g
     inkscape:groupmode="layer"
     id="layer12"
     inkscape:label="Pillow on Floor | Pillow"
     sodipodi:insensitive="true"
     style="display:none"
     transform="translate(168.90721,16.411062)">
    <path
       style="fill:#75a7d7;fill-opacity:1;stroke:none;stroke-width:0.26458332px;stroke-linecap:butt;stroke-linejoin:miter;stroke-opacity:1"
       d="m 345.46012,251.96499 c -7.27083,-5.80786 -13.94554,-12.86986 -22.30424,-16.67935 -6.69059,-3.04924 -14.64069,-2.15689 -21.56011,-4.61181 -1.41624,-0.50246 -4.02884,-2.05108 -4.02884,-2.05108 0,0 -2.68849,3.47295 -4.30263,4.86758 -2.46977,2.13391 -5.44047,3.37864 -8.08253,5.22379 -2.38697,1.66703 -4.56519,3.72554 -7.01003,5.27595 -2.10488,1.33481 -6.5515,3.43964 -6.5515,3.43964 0,0 4.18044,1.95591 6.13863,3.19098 5.75454,3.62951 10.531,8.90977 16.3929,12.33999 7.06242,4.13271 15.64911,5.10293 22.39663,9.79589 1.91144,1.32943 4.95167,5.08167 4.95167,5.08167 0,0 1.82319,-4.20137 3.31027,-5.79943 2.3958,-2.57461 5.82245,-3.54188 8.57876,-5.60683 3.26266,-2.44429 6.01693,-5.7383 9.37885,-7.99716 2.02679,-1.3618 6.42116,-3.29215 6.42116,-3.29215 0,0 -2.45623,-2.16104 -3.72899,-3.17768 z"
       id="path1212-5"
       inkscape:connector-curvature="0"
       sodipodi:nodetypes="aaacaaacaaacaaaca" />
  </g>
  <g
     inkscape:groupmode="layer"
     id="layer13"
     inkscape:label="Bowl on Pillow |  Bowl"
     sodipodi:insensitive="true"
     style="display:none"
     transform="translate(168.90721,16.411062)">
    <path
       inkscape:connector-curvature="0"
       style="fill:#9bbfb8;fill-opacity:1;stroke:none;stroke-width:0.26458332px;stroke-linecap:butt;stroke-linejoin:miter;stroke-opacity:1"
       d="m 314.57299,253.85818 c 8.20601,-1.26436 16.38754,-3.43381 24.53867,-6.716 0,0 -3.52648,-8.86633 -13.98781,-12.76141 l 1.99584,-5.67244 c -12.46545,-2.27167 -24.63596,0.10208 -36.45865,5.37675 l 4.55006,4.55991 c -8.14269,6.63517 -8.62518,16.32701 -8.62518,16.32701 9.35513,0.58944 18.68692,0.31912 27.98707,-1.11382 z"
       id="path1257-3" />
  </g>
  <g
     inkscape:groupmode="layer"
     id="layer11"
     inkscape:label="Top Shelf (Broken)"
     sodipodi:insensitive="true"
     style="display:none"
     transform="translate(168.90721,16.411062)">
    <path
       style="fill:#bf956e;fill-opacity:1;stroke:none;stroke-width:0.26458332px;stroke-linecap:butt;stroke-linejoin:miter;stroke-opacity:1"
       d="m 151.56647,22.504048 135.96747,51.686263 33.29338,1.164103 1.62975,-9.778481 -142.25362,-43.770348 -26.77441,-5.354882 z"
       id="path1332"
       inkscape:connector-curvature="0"
       sodipodi:nodetypes="ccccccc" />
  </g>
  <g
     inkscape:groupmode="layer"
     id="layer10"
     inkscape:label="Top Shelf | Shelves"
     sodipodi:insensitive="true"
     style="display:inline"
     transform="translate(168.90721,16.411062)">
    <path
       style="fill:#bf956e;fill-opacity:1;stroke:none;stroke-width:0.26458332px;stroke-linecap:butt;stroke-linejoin:miter;stroke-opacity:1"
       d="M 133.10022,29.19593 303.61818,46.03391 325.80156,39.619441 324.99974,29.19593 147.53278,19.841497 132.29841,23.048732 Z"
       id="path1255"
       inkscape:connector-curvature="0"
       sodipodi:nodetypes="ccccccc" />
  </g>
  <g
     inkscape:groupmode="layer"
     id="layer14"
     inkscape:label="Bowl on Shelf | Bowl"
     sodipodi:insensitive="true"
     transform="translate(168.90721,16.411062)">
    <path
       inkscape:connector-curvature="0"
       style="fill:#9bbfb8;fill-opacity:1;stroke:none;stroke-width:0.26458332px;stroke-linecap:butt;stroke-linejoin:miter;stroke-opacity:1"
       d="m 292.31135,5.1025357 c -8.30284,0.011105 -16.7181,0.9206066 -25.27131,2.9347045 0,0 2.14763,9.2970658 11.90107,14.7267498 l -2.82927,5.306137 c 11.97967,4.127404 24.36905,3.618105 36.85251,0.188619 L 309.15478,23.06423 C 318.2058,17.734299 320.14583,8.2263761 320.14583,8.2263761 310.98688,6.231449 301.72123,5.0899518 292.31135,5.1025357 Z"
       id="path1257" />
  </g>
  <g
     inkscape:groupmode="layer"
     id="layer9"
     inkscape:label="Shelves"
     style="display:inline"
     transform="translate(168.90721,16.411062)"
     sodipodi:insensitive="true">
    <path
       style="fill:#bf956e;fill-opacity:1;stroke:none;stroke-width:0.26458332px;stroke-linecap:butt;stroke-linejoin:miter;stroke-opacity:1"
       d="m 129.89299,107.23863 175.86334,52.38483 15.7689,-8.81989 v -7.21628 L 146.4637,97.349663 129.89299,102.69505 Z"
       id="path1251"
       inkscape:connector-curvature="0" />
    <path
       style="fill:#bf956e;fill-opacity:1;stroke:none;stroke-width:0.26458332px;stroke-linecap:butt;stroke-linejoin:miter;stroke-opacity:1"
       d="m 132.29841,61.268277 v 6.949008 l 172.65613,37.150465 20.57974,-9.621703 -0.53454,-10.69078 -176.66515,-28.330573 z"
       id="path1253"
       inkscape:connector-curvature="0"
       sodipodi:nodetypes="ccccccc" />
  </g>
  <g
     inkscape:groupmode="layer"
     id="layer8"
     inkscape:label="Stool"
     style="display:none"
     transform="translate(168.90721,16.411062)"
     sodipodi:insensitive="true">
    <path
       style="opacity:1;fill:#ba773b;fill-opacity:1;stroke:none;stroke-width:1.66499996;stroke-linecap:round;stroke-linejoin:round;stroke-miterlimit:4;stroke-dasharray:none;stroke-opacity:1"
       d="m 232.06567,174.50719 a 24.190477,10.583333 0 0 0 -24.19077,10.58333 24.190477,10.583333 0 0 0 6.17068,7.04143 l -3.64215,37.4897 a 3.3638366,3.3638366 0 1 0 6.6952,0.65009 l 3.48454,-35.86912 a 24.190477,10.583333 0 0 0 10.46396,1.24901 l 1.6707,48.99701 a 3.3638366,3.3638366 0 1 0 6.72259,-0.22841 l -1.67277,-49.05695 a 24.190477,10.583333 0 0 0 7.49153,-1.40611 l 5.58364,31.87143 a 3.3638366,3.3638366 0 1 0 6.62492,-1.16013 l -5.84564,-33.36696 a 24.190477,10.583333 0 0 0 4.63383,-6.21099 24.190477,10.583333 0 0 0 -24.19026,-10.58333 z"
       id="path1262"
       inkscape:connector-curvature="0" />
  </g>
  <g
     inkscape:groupmode="layer"
     id="layer7"
     inkscape:label="Door (Shut)"
     style="display:inline"
     sodipodi:insensitive="true"
     transform="translate(168.90721,16.411062)">
    <path
       style="fill:#8c5828;fill-opacity:1;stroke:none;stroke-width:0.26458332px;stroke-linecap:butt;stroke-linejoin:miter;stroke-opacity:1"
       d="M 94.494048,157.99925 91.848215,60.386903 34.773809,64.922618 48.664435,180.96131 Z"
       id="path399"
       inkscape:connector-curvature="0"
       sodipodi:nodetypes="ccccc" />
    <circle
       style="opacity:1;fill:#bfb300;fill-opacity:1;stroke:none;stroke-width:1.36500001;stroke-linecap:round;stroke-linejoin:round;stroke-miterlimit:4;stroke-dasharray:none;stroke-opacity:1"
       id="path1206"
       cx="53.186634"
       cy="123.54208"
       r="3.7417734" />
  </g>
  <g
     inkscape:groupmode="layer"
     id="layer16"
     inkscape:label="To Hallway"
     style="display:none"
     sodipodi:insensitive="true">
    <path
       transform="translate(168.90721,16.411062)"
       style="display:inline;fill:#000000;fill-opacity:1;stroke:none;stroke-width:0.26458332px;stroke-linecap:butt;stroke-linejoin:miter;stroke-opacity:1"
       d="M 94.494048,157.99925 91.848215,60.386903 34.773809,64.922618 48.664435,180.96131 Z"
       id="path399-5"
       inkscape:connector-curvature="0"
       sodipodi:nodetypes="ccccc" />
  </g>
  <g
     inkscape:groupmode="layer"
     id="layer17"
     inkscape:label="Door (Open)"
     style="display:none"
     transform="translate(168.90721,16.411062)"
     sodipodi:insensitive="true">
    <path
       style="fill:#8c5828;fill-opacity:1;stroke:none;stroke-width:0.26458332px;stroke-linecap:butt;stroke-linejoin:miter;stroke-opacity:1"
       d="m 91.033009,60.221042 1.663753,-0.324167 34.889138,1.488273 -0.69012,113.640702 -1.28479,0.87647 -32.715412,-17.89646 z"
       id="path1629"
       inkscape:connector-curvature="0"
       sodipodi:nodetypes="ccccccc" />
    <circle
       style="display:inline;opacity:1;fill:#bfb300;fill-opacity:1;stroke:none;stroke-width:1.36500001;stroke-linecap:round;stroke-linejoin:round;stroke-miterlimit:4;stroke-dasharray:none;stroke-opacity:1"
       id="path1206-7"
       cx="117.21241"
       cy="119.11848"
       r="3.7417734" />
  </g>
  <g
     inkscape:groupmode="layer"
     id="layer2"
     inkscape:label="Bed"
     sodipodi:insensitive="true"
     style="display:inline"
     transform="translate(168.90721,16.411062)">
    <path
       style="color:#000000;font-style:normal;font-variant:normal;font-weight:normal;font-stretch:normal;font-size:medium;line-height:normal;font-family:sans-serif;font-variant-ligatures:normal;font-variant-position:normal;font-variant-caps:normal;font-variant-numeric:normal;font-variant-alternates:normal;font-feature-settings:normal;text-indent:0;text-align:start;text-decoration:none;text-decoration-line:none;text-decoration-style:solid;text-decoration-color:#000000;letter-spacing:normal;word-spacing:normal;text-transform:none;writing-mode:lr-tb;direction:ltr;text-orientation:mixed;dominant-baseline:auto;baseline-shift:baseline;text-anchor:start;white-space:normal;shape-padding:0;clip-rule:nonzero;display:inline;overflow:visible;visibility:visible;opacity:1;isolation:auto;mix-blend-mode:normal;color-interpolation:sRGB;color-interpolation-filters:linearRGB;solid-color:#000000;solid-opacity:1;vector-effect:none;fill:#bfb300;fill-opacity:1;fill-rule:nonzero;stroke:none;stroke-width:7.0381155;stroke-linecap:round;stroke-linejoin:miter;stroke-miterlimit:4;stroke-dasharray:none;stroke-dashoffset:0;stroke-opacity:1;color-rendering:auto;image-rendering:auto;shape-rendering:auto;text-rendering:auto;enable-background:accumulate"
       d="m 1.0877101,118.29884 c -0.74736105,0.002 -1.49518405,0.0188 -2.242106,0.0524 -5.975387,0.26843 -11.9041281,1.57786 -17.2781921,4.14402 -8.095115,3.86549 -13.55491,11.48326 -17.228071,18.8022 -3.684161,7.34087 -6.791887,13.15609 -5.16505,26.54867 1.59215,13.107 7.818764,51.52365 7.818764,51.52365 l 0.828093,5.11138 75.624853,-45.07454 -0.196045,-2.20264 c 0,0 -0.679725,-7.66452 -1.800781,-16.64481 -1.121058,-8.98029 -2.573546,-19.07912 -4.56139,-24.99672 -1.983169,-5.90367 -5.561158,-9.56079 -9.421283,-11.55693 -3.860126,-1.99615 -7.763288,-2.60105 -11.065495,-3.55056 -4.863705,-1.3985 -10.0817749,-2.16589 -15.3132969,-2.15606 z m -0.20713405,7.08781 c 3.94395605,-0.0124 7.88956005,0.53656 11.64786295,1.44506 l 11.186581,56.14226 -11.501938,6.8545 -16.0007909,-64.00405 c 1.000345,-0.11317 1.965545,-0.35193 2.97883295,-0.39741 0.562813,-0.0252 1.126029,-0.0386 1.689452,-0.0403 z M -10.691,127.22735 5.9001451,193.59192 -9.2947309,202.64773 -24.600043,136.9254 c 2.644502,-3.44595 5.705707,-6.41015 9.199954,-8.07868 1.470843,-0.70234 3.105309,-1.13603 4.709089,-1.61937 z m 30.780064,1.52579 c 1.529598,0.4335 2.948511,0.8847 4.145343,1.50361 2.549695,1.31849 4.475255,3.0626 5.981613,7.54686 1.501685,4.47037 3.146129,14.78781 4.249579,23.62706 0.956789,7.6644 1.387528,12.57153 1.53865,14.21731 l -5.873832,3.50221 z m -49.939763,16.65634 14.211097,61.02034 -11.231822,6.69393 c -1.199565,-7.46166 -5.6311,-35.11229 -6.968936,-46.12573 -1.418533,-11.67775 0.528352,-14.79681 3.989661,-21.58854 z"
       id="path1216"
       inkscape:connector-curvature="0" />
    <path
       style="fill:#91b9df;fill-opacity:1;stroke:none;stroke-width:0.26458332px;stroke-linecap:butt;stroke-linejoin:miter;stroke-opacity:1"
       d="m 35.279579,155.34715 136.841991,54.79025 1.33635,36.61594 -70.82642,60.4029 -138.178347,-83.92262 -3.741772,-33.14143 z"
       id="path1208"
       inkscape:connector-curvature="0" />
  </g>
  <g
     inkscape:groupmode="layer"
     id="layer3"
     inkscape:label="Sheet"
     sodipodi:insensitive="true"
     style="display:inline"
     transform="translate(168.90721,16.411062)">
    <path
       style="fill:#75a7d7;fill-opacity:1;stroke:none;stroke-width:0.26458332px;stroke-linecap:butt;stroke-linejoin:miter;stroke-opacity:1"
       d="m 71.093696,169.11153 c 0,0 -10.641143,7.84189 -15.635269,12.16076 -4.67064,4.03912 -8.895632,8.56658 -13.363476,12.82894 -3.419772,3.26249 -7.651558,5.83387 -10.289878,9.75534 -3.416991,5.07885 -5.294855,11.14311 -6.681738,17.10525 -1.073639,4.61552 -2.188058,9.53011 -1.202713,14.16528 1.036394,4.87532 3.567578,9.70065 7.216277,13.09621 3.662224,3.40815 9.0905,4.18 13.630746,6.28083 4.413202,2.04205 8.604606,4.64603 13.229842,6.1472 1.769899,0.57444 3.804952,0.25668 5.479026,1.06908 1.903892,0.92393 2.925953,3.18059 4.810853,4.14267 2.405856,1.22798 5.424244,0.75579 7.884451,1.8709 2.240283,1.01543 3.805076,3.19346 6.013564,4.2763 1.796706,0.88094 3.942659,0.87058 5.746295,1.73725 1.559152,0.7492 2.637017,2.38773 4.276312,2.93997 2.662491,0.89693 5.710349,-0.34515 8.418992,0.4009 1.46015,0.40218 2.49869,2.02572 4.00904,2.13815 3.58279,0.2667 6.79965,-2.32718 10.15624,-3.60812 3.19182,-1.21806 6.71079,-1.88591 9.48807,-3.87541 2.92626,-2.09622 4.02102,-6.25867 7.08264,-8.15172 2.58219,-1.59661 6.45109,-0.37296 8.8199,-2.2718 1.98964,-1.5949 1.64312,-5.04099 3.4745,-6.81537 2.4043,-2.32946 6.97759,-1.67694 9.08716,-4.27631 1.09618,-1.35069 0.10772,-3.72647 1.20272,-5.07812 1.70584,-2.10566 5.12381,-1.92912 7.34991,-3.4745 1.94075,-1.34729 3.0923,-3.66455 5.07812,-4.94449 0.92474,-0.59603 2.21385,-0.51625 3.0736,-1.20271 1.1779,-0.94049 1.30342,-2.87856 2.53906,-3.74178 0.75281,-0.52591 1.85096,-0.25822 2.67269,-0.66817 3.23088,-1.61182 8.41899,-6.81538 8.41899,-6.81538 0,0 -4.14443,-11.62673 -8.68625,-15.36799 -2.28324,-1.88079 -5.64717,-1.77311 -8.419,-2.80633 -5.46468,-2.03699 -10.81732,-4.36592 -16.1698,-6.68174 -3.76917,-1.63078 -7.49714,-3.35569 -11.22532,-5.07812 -4.73934,-2.18959 -9.08356,-5.48522 -14.16529,-6.68174 -1.995,-0.46973 -4.15008,0.32701 -6.1472,-0.13363 -7.88508,-1.81871 -14.57094,-7.06595 -22.049729,-10.15625 -4.298143,-1.77603 -8.676775,-3.36277 -13.096208,-4.81085 -3.965533,-1.29936 -12.027127,-3.4745 -12.027127,-3.4745 z"
       id="path1214"
       inkscape:connector-curvature="0"
       sodipodi:nodetypes="caaaaaaaaaaaaaaaaaaaaaaaaaaaacaaaaaaaac" />
  </g>
  <g
     inkscape:groupmode="layer"
     id="layer4"
     inkscape:label="Pillow on Bed |  Pillow"
     style="display:inline"
     sodipodi:insensitive="true"
     transform="translate(168.90721,16.411062)">
    <path
       style="fill:#75a7d7;fill-opacity:1;stroke:none;stroke-width:0.26458332px;stroke-linecap:butt;stroke-linejoin:miter;stroke-opacity:1"
       d="m -21.648831,180.60412 c 7.807127,-5.88473 15.017903,-12.93145 23.920622,-16.97162 7.126037,-3.23388 15.479324,-2.78503 22.831399,-5.46559 1.504799,-0.54864 4.296458,-2.15159 4.296458,-2.15159 0,0 2.744644,3.16558 4.409948,4.40995 2.548064,1.904 5.646385,2.93777 8.383259,4.55869 2.472648,1.46443 4.715444,3.31141 7.252007,4.66211 2.183836,1.16287 6.815373,2.93996 6.815373,2.93996 0,0 -4.453805,2.06876 -6.548104,3.34087 -6.154531,3.73835 -11.320349,8.99642 -17.582949,12.55077 -7.54516,4.28226 -16.616257,5.63551 -23.843827,10.43441 -2.047433,1.35944 -5.34539,5.07812 -5.34539,5.07812 0,0 -1.814571,-3.90131 -3.34086903,-5.34539 -2.45898197,-2.32653 -6.04468697,-3.07373 -8.89637497,-4.89779 -3.375568,-2.15916 -6.194017,-5.15138 -9.678857,-7.12933 -2.100897,-1.19244 -6.681738,-2.80634 -6.681738,-2.80634 0,0 2.642429,-2.17713 4.009043,-3.20723 z"
       id="path1212"
       inkscape:connector-curvature="0"
       sodipodi:nodetypes="aaacaaacaaacaaaca" />
  </g>
  <g
     inkscape:groupmode="layer"
     id="layer5"
     inkscape:label="Table | Bedside Table"
     style="display:inline"
     sodipodi:insensitive="true"
     transform="translate(168.90721,16.411062)">
    <path
       style="fill:#8c5828;fill-opacity:1;stroke:none;stroke-width:0.19754593px;stroke-linecap:butt;stroke-linejoin:miter;stroke-opacity:1"
       d="m -57.036658,197.39349 -42.903592,19.55605 0.39911,48.69057 4.988793,6.18609 6.186098,-2.99325 -0.199553,-17.16144 11.374438,8.58071 0.199551,24.54485 5.587444,5.58743 5.387891,-5.18833 v -24.54484 l 28.146753,-15.76457 0.199551,21.45648 3.781492,3.88655 6.585201,-5.38788 1.197308,-47.09416 z"
       id="path1232"
       inkscape:connector-curvature="0"
       sodipodi:nodetypes="ccccccccccccccccc" />
  </g>
  <g
     inkscape:groupmode="layer"
     id="layer18"
     inkscape:label="Drawer (Shut)"
     style="display:inline"
     transform="translate(168.90721,16.411062)"
     sodipodi:insensitive="true">
    <path
       style="display:inline;fill:#8c5828;fill-opacity:1;stroke:#6e4520;stroke-width:1.66499996;stroke-linecap:round;stroke-linejoin:round;stroke-miterlimit:4;stroke-dasharray:none;stroke-opacity:1"
       d="m -66.19363,250.49307 -0.377976,-15.02456 29.765625,-13.32366 -0.566965,13.98512 z"
       id="path1234"
       inkscape:connector-curvature="0" />
    <circle
       style="display:inline;opacity:1;fill:#bfb300;fill-opacity:1;stroke:none;stroke-width:0.64109945;stroke-linecap:round;stroke-linejoin:round;stroke-miterlimit:4;stroke-dasharray:none;stroke-opacity:1"
       id="path1206-1"
       cx="-50.035149"
       cy="236.03551"
       r="1.7573985" />
  </g>
  <g
     inkscape:groupmode="layer"
     id="layer19"
     inkscape:label="Drawer (Open)"
     style="display:none"
     transform="translate(168.90721,16.411062)"
     sodipodi:insensitive="true">
    <path
       id="path1234-9"
       style="display:inline;fill:#6e4520;fill-opacity:1;stroke:#6e4520;stroke-width:1.66499996;stroke-linecap:round;stroke-linejoin:round;stroke-miterlimit:4;stroke-dasharray:none;stroke-opacity:1"
       d="m -66.19363,250.49307 -0.377976,-15.02456 29.765625,-13.32366 13.037976,12.68874 -0.566965,13.98512 -28.820684,14.3631 z"
       inkscape:connector-curvature="0"
       sodipodi:nodetypes="ccccccc" />
    <path
       style="display:inline;fill:#8c5828;fill-opacity:1;stroke:#6e4520;stroke-width:1.66499996;stroke-linecap:round;stroke-linejoin:round;stroke-miterlimit:4;stroke-dasharray:none;stroke-opacity:1"
       d="m -53.298934,263.10178 -0.377976,-15.02456 29.765625,-13.32366 -0.566965,13.98512 z"
       id="path1234-1"
       inkscape:connector-curvature="0" />
    <circle
       style="display:inline;opacity:1;fill:#bfb300;fill-opacity:1;stroke:none;stroke-width:0.64109945;stroke-linecap:round;stroke-linejoin:round;stroke-miterlimit:4;stroke-dasharray:none;stroke-opacity:1"
       id="path1206-1-0"
       cx="-36.997173"
       cy="248.72426"
       r="1.7573985" />
    <path
       style="fill:#000000;fill-opacity:1;stroke:none;stroke-width:0.26458332px;stroke-linecap:butt;stroke-linejoin:miter;stroke-opacity:1"
       d="m -62.279617,236.0009 25.144669,-11.52464 10.360533,9.54566 -26.425183,11.40823 z"
       id="path1698"
       inkscape:connector-curvature="0" />
  </g>
  <g
     inkscape:groupmode="layer"
     id="layer20"
     inkscape:label="Knife"
     style="display:none"
     sodipodi:insensitive="true">
    <path
       style="display:inline;fill:#c1c1c1;fill-opacity:1;stroke:none;stroke-width:0.17433295px;stroke-linecap:butt;stroke-linejoin:miter;stroke-opacity:1"
       d="m 134.22987,254.53627 c -0.69346,0.31514 -8.20883,2.54525 -8.20883,2.54525 0,0 -0.57872,-0.62851 -0.94918,-0.50367 -0.37043,0.12481 -0.53315,1.15357 -0.53315,1.15357 0,0 -4.34017,1.62297 -6.62016,1.80193 -0.69618,0.0546 -1.41266,-0.0307 -2.08251,-0.22808 -0.82306,-0.2425 -2.30199,-1.15192 -2.30199,-1.15192 l 10.12781,-3.27524 c 0,0 0.8169,0.50051 1.17789,0.41434 0.36097,-0.0862 0.67661,-0.70628 0.67661,-0.70628 0,0 6.72195,-2.40187 7.83528,-2.59398 1.11331,-0.19212 1.57166,2.22897 0.87821,2.54411 z"
       id="path864"
       inkscape:connector-curvature="0"
       sodipodi:nodetypes="cczcaacczczzc"
       clip-path="url(#clipPath911)" />
  </g>
</svg>
