<?xml version="1.0" encoding="UTF-8" standalone="no"?>
<!-- Created with Inkscape (http://www.inkscape.org/) -->

<svg
   xmlns:dc="http://purl.org/dc/elements/1.1/"
   xmlns:cc="http://creativecommons.org/ns#"
   xmlns:rdf="http://www.w3.org/1999/02/22-rdf-syntax-ns#"
   xmlns:svg="http://www.w3.org/2000/svg"
   xmlns="http://www.w3.org/2000/svg"
   xmlns:xlink="http://www.w3.org/1999/xlink"
   xmlns:sodipodi="http://sodipodi.sourceforge.net/DTD/sodipodi-0.dtd"
   xmlns:inkscape="http://www.inkscape.org/namespaces/inkscape"
   width="328.57263mm"
   height="184.82211mm"
   viewBox="0 0 328.57263 184.82211"
   version="1.1"
   id="svg8"
   inkscape:version="0.92.1 r15371"
   sodipodi:docname="04-garden.svg">
  <defs
     id="defs2">
    <linearGradient
       inkscape:collect="always"
       id="linearGradient973">
      <stop
         style="stop-color:#644900;stop-opacity:0.49494949"
         offset="0"
         id="stop969" />
      <stop
         style="stop-color:#644900;stop-opacity:0;"
         offset="1"
         id="stop971" />
    </linearGradient>
    <linearGradient
       inkscape:collect="always"
       id="linearGradient965">
      <stop
         style="stop-color:#644900;stop-opacity:0.49494949"
         offset="0"
         id="stop961" />
      <stop
         style="stop-color:#000000;stop-opacity:0;"
         offset="1"
         id="stop963" />
    </linearGradient>
    <radialGradient
       inkscape:collect="always"
       xlink:href="#linearGradient965"
       id="radialGradient967"
       cx="-265.10269"
       cy="167.76376"
       fx="-265.10269"
       fy="167.76376"
       r="37.763035"
       gradientTransform="matrix(0.71509944,2.2307147,-0.75378861,0.24164177,61.214504,729.77536)"
       gradientUnits="userSpaceOnUse" />
    <radialGradient
       inkscape:collect="always"
       xlink:href="#linearGradient973"
       id="radialGradient975"
       cx="-265.16455"
       cy="167.83745"
       fx="-265.16455"
       fy="167.83746"
       r="37.980448"
       gradientTransform="matrix(0.71100724,2.217944,-0.74947329,0.24025894,59.504905,726.74131)"
       gradientUnits="userSpaceOnUse" />
    <linearGradient
       inkscape:collect="always"
       id="linearGradient943">
      <stop
         style="stop-color:#19a627;stop-opacity:1"
         offset="0"
         id="stop939" />
      <stop
         id="stop1010"
         offset="0.70762014"
         style="stop-color:#178522;stop-opacity:1" />
      <stop
         style="stop-color:#123916;stop-opacity:1"
         offset="1"
         id="stop941" />
    </linearGradient>
    <radialGradient
       inkscape:collect="always"
       xlink:href="#linearGradient943"
       id="radialGradient1008"
       cx="165.73802"
       cy="350.29013"
       fx="165.73802"
       fy="350.29013"
       r="186.63813"
       gradientTransform="matrix(1.8093701,0.04355167,-0.01525408,0.63373601,-128.80003,14.675264)"
       gradientUnits="userSpaceOnUse" />
  </defs>
  <sodipodi:namedview
     id="base"
     pagecolor="#ffffff"
     bordercolor="#666666"
     borderopacity="1.0"
     inkscape:pageopacity="0.0"
     inkscape:pageshadow="2"
     inkscape:zoom="1.2282756"
     inkscape:cx="620.92466"
     inkscape:cy="349.27013"
     inkscape:document-units="mm"
     inkscape:current-layer="layer9"
     showgrid="false"
     borderlayer="true"
     fit-margin-top="0"
     fit-margin-left="0"
     fit-margin-right="0"
     fit-margin-bottom="0"
     inkscape:window-width="1920"
     inkscape:window-height="1027"
     inkscape:window-x="-8"
     inkscape:window-y="-8"
     inkscape:window-maximized="1"
     inkscape:snap-global="false"
     inkscape:pagecheckerboard="true" />
  <metadata
     id="metadata5">
    <rdf:RDF>
      <cc:Work
         rdf:about="">
        <dc:format>image/svg+xml</dc:format>
        <dc:type
           rdf:resource="http://purl.org/dc/dcmitype/StillImage" />
        <dc:title />
      </cc:Work>
    </rdf:RDF>
  </metadata>
  <g
     inkscape:groupmode="layer"
     id="layer3"
     inkscape:label="Landscape"
     sodipodi:insensitive="true"
     style="display:inline">
    <rect
       style="opacity:1;fill:#a5d9ff;fill-opacity:1;stroke:none;stroke-width:0.565;stroke-linecap:round;stroke-linejoin:round;stroke-miterlimit:4;stroke-dasharray:none;stroke-opacity:1"
       id="rect947"
       width="352.05347"
       height="96.483955"
       x="-11.294102"
       y="-16.858381" />
    <path
       style="opacity:1;fill:url(#radialGradient1008);fill-opacity:1;stroke:none;stroke-width:0.26458332px;stroke-linecap:butt;stroke-linejoin:miter;stroke-opacity:1"
       d="m 335.81183,59.5864 c -0.32176,-3.79362 -6.87528,-2.914507 -7.96002,-8.680135 1.41976,-2.86915 2.52016,-6.26083 0.64538,-14.520995 -0.67882,4.391451 -5.19018,4.183869 -8.7126,5.163021 1.40872,-3.267692 3.18452,-6.076508 2.25883,-12.262175 -2.19565,2.277591 -5.30609,2.725642 -8.38991,3.226887 1.77106,-4.68271 5.40866,-7.498882 3.87225,-15.48906 -1.48074,2.753048 -4.81261,2.112401 -8.0672,1.613442 0.5012,0.902123 2.59866,-10.8114833 0,-11.9394843 -1.36379,3.6413393 -7.72438,2.500738 -7.74454,2.258819 1.10768,-3.451167 3.13032,-6.139875 2.58152,-10.971418 -1.7254,5.627914 -5.44918,4.991325 -6.13109,8.712599 -4.03349,-2.331892 -3.31089,-6.32894895 -9.03531,-8.067221 3.03671,4.3816 1.4124,8.523947 5.8084,10.32604 -4.16912,5.1500273 -8.78848,4.8976683 -13.23022,6.7764663 3.74779,3.555736 6.84223,3.191169 10.00334,3.226888 -3.72393,5.372499 -8.99393,6.879828 -14.521,7.744534 2.40866,2.719855 4.7275,6.517251 7.42186,5.808395 -2.17768,2.883448 -4.62164,2.305365 -7.09917,1.290757 0.23325,10.791526 2.52648,15.108922 4.84034,19.361327 -1.1748,2.34964 -8.35597,-5.230932 -7.42183,-4.84033 -0.12576,2.958812 3.43157,11.970869 3.54957,11.616793 0,0 -5.16895,-9.577498 -6.13108,-14.843683 -0.63823,-3.493384 1.24989,-7.220702 0.32268,-10.648731 -1.05976,-3.918196 -5.57937,-6.362356 -6.45377,-10.326041 -0.56044,-2.540516 1.72414,-5.255215 0.96806,-7.744532 -1.24095,-4.085831 -6.23654,-5.993254 -8.38991,-9.6806623 -1.61274,-2.761652 -1.72453,-6.21205395 -3.22688,-9.035287 -2.38506,-4.482067 -6.48341,-7.8729347 -9.03529,-12.2621747 -1.59737,-2.747507 -0.70686,-8.428612 -3.87225,-8.712597 -6.47778,-0.581155 -5.8194,12.165097 -10.97143,16.1344397 -1.53609,1.18347 -4.19721,0.487012 -5.48571,1.936132 -2.27145,2.554604 -0.54119,7.047817 -2.25883,10.003353 -1.68328,2.896418 -5.50824,4.026768 -7.42184,6.7764663 -2.45306,3.524869 -0.57454,11.44428 -4.84033,11.939485 -3.14242,0.364794 -3.76642,-5.088991 -5.48571,-7.744532 -2.64678,-4.088103 -4.00028,-9.1191823 -7.42184,-12.5848643 -2.47541,-2.50733095 -5.71006,-4.320705 -9.03529,-5.485708 -6.34598,-2.223332 -13.38545,-1.409434 -20.0067,-2.581511 -6.73215,-1.191708 -13.28513,-3.26773 -20.00671,-4.517643 -8.01611,-1.4906357 -16.10977,-4.5502237 -24.20166,-3.5495767 -5.31288,0.656994 -9.91721,4.0362657 -14.84368,6.1310877 -3.45742,1.470158 -7.22292,2.399674 -10.32604,4.517643 -3.643611,2.48686905 -6.731741,5.813508 -9.357981,9.357975 -1.0886,1.469221 -1.24298,3.5945343 -2.58151,4.8403333 -2.32641,2.165239 -5.57241,3.382753 -8.7126,3.872264 C 72.861692,16.799825 65.71568,15.359237 59.052051,13.474364 54.700041,12.243358 51.083211,9.0881807 46.789881,7.6659657 39.50088,5.2513997 31.86174,3.6801687 24.201661,3.1483217 20.547,2.8945757 16.883759,3.5239267 13.230239,3.7937017 8.3840201,4.1515457 3.0988411,2.9998957 -1.2907599,5.0844557 -6.7188799,7.6621987 -11.56162,12.446318 -13.87562,17.992008 -37.07489,73.590886 -17.10251,198.69774 -17.10251,198.69774 l 365.28372,-1.29075 c -4.835,-45.87484 -8.4713,-91.85984 -12.36938,-137.82059 z"
       id="path937"
       inkscape:connector-curvature="0"
       sodipodi:nodetypes="ccccccccccccccccccccccaaaaaaaaaaaaaaaaaaaaaaaaaaaaaaccc" />
    <path
       transform="translate(364.30445,-15.571868)"
       style="opacity:1;fill:url(#radialGradient975);fill-opacity:1;stroke:url(#radialGradient967);stroke-width:0.26458332px;stroke-linecap:butt;stroke-linejoin:miter;stroke-opacity:1"
       d="m -278.96683,182.82448 -23.73024,36.50807 155.38747,-1e-5 -51.79583,-35.13901 z"
       id="path951"
       inkscape:connector-curvature="0"
       sodipodi:nodetypes="ccccc" />
  </g>
  <g
     inkscape:groupmode="layer"
     id="layer5"
     inkscape:label="Cottage"
     sodipodi:insensitive="true"
     style="display:inline">
    <path
       transform="translate(364.30445,-15.571868)"
       style="opacity:1;fill:#ffffff;fill-opacity:1;stroke:#644900;stroke-width:3.86500001;stroke-linecap:butt;stroke-linejoin:miter;stroke-miterlimit:4;stroke-dasharray:none;stroke-opacity:1"
       d="m -318.45933,166.36701 38.96989,16.09283 116.59412,1.89327 2.52439,-76.99314 -21.45712,-79.990838 -58.21818,37.865484 -68.15787,1.104411 -11.41027,22.739868 z"
       id="path815"
       inkscape:connector-curvature="0"
       sodipodi:nodetypes="ccccccccc" />
    <g
       transform="translate(364.30445,-15.571868)"
       id="g862"
       style="opacity:1;stroke:#644900;stroke-opacity:1">
      <path
         id="path850"
         style="fill:none;stroke:#644900;stroke-width:2.56500006;stroke-linecap:round;stroke-linejoin:miter;stroke-miterlimit:4;stroke-dasharray:none;stroke-opacity:1"
         d="m -218.27357,183.56425 -15.1462,-43.30865 17.67056,-42.362005 m 38.81212,2.682135 13.884,39.60099 -17.19723,43.70308 m -53.64277,-43.54531 70.99777,-0.15777 m -56.00935,-41.967581 56.00935,2.524371 m -34.23669,-1.104413 -2.99769,84.724013 m 24.41111,-124.240161 -5.00505,124.397941 m -34.71002,-106.812219 -2.83991,105.707809 m -14.67288,-90.877162 -1.7355,90.246072 m 63.6421,-122.367039 -44.38012,-2.96628"
         inkscape:connector-curvature="0"
         sodipodi:nodetypes="cccccccccccccccccccc" />
    </g>
    <g
       transform="translate(364.30445,-15.571868)"
       id="g859"
       style="opacity:1;stroke:#644900;stroke-opacity:1">
      <path
         inkscape:connector-curvature="0"
         id="path819"
         d="m -277.28062,93.475955 -2.36659,88.983885"
         style="fill:none;stroke:#644900;stroke-width:3.86500001;stroke-linecap:round;stroke-linejoin:miter;stroke-miterlimit:4;stroke-dasharray:none;stroke-opacity:1" />
      <path
         d="m -319.2482,134.33912 40.86317,5.8376 m -41.02094,-48.278494 29.81907,-0.315544"
         style="fill:none;stroke:#644900;stroke-width:2.66499996;stroke-linecap:round;stroke-linejoin:miter;stroke-miterlimit:4;stroke-dasharray:none;stroke-opacity:1"
         id="path821"
         inkscape:connector-curvature="0" />
      <path
         d="m -312.62174,80.380808 0.31555,88.352792 m 7.25755,-97.661389 -1.57773,99.870209 m 9.62414,-88.983883 -0.94663,92.770433 m 7.73087,-83.935154 -0.78887,86.143974 m 6.78423,-78.886422 -0.63109,82.041882"
         style="fill:none;stroke:#644900;stroke-width:1.76499999;stroke-linecap:round;stroke-linejoin:miter;stroke-miterlimit:4;stroke-dasharray:none;stroke-opacity:1"
         id="path831"
         inkscape:connector-curvature="0" />
    </g>
  </g>
  <g
     inkscape:groupmode="layer"
     id="layer7"
     inkscape:label="Enter"
     style="display:inline"
     sodipodi:insensitive="true">
    <path
       transform="translate(364.30445,-15.571868)"
       style="opacity:1;fill:#000000;fill-opacity:1;stroke:none;stroke-width:0.26458332px;stroke-linecap:butt;stroke-linejoin:miter;stroke-opacity:1"
       d="m -268.23619,116.74885 26.8865,0.55782 -0.66937,62.02861 -27.66744,-0.22313 z"
       id="path866-2"
       inkscape:connector-curvature="0" />
  </g>
  <g
     inkscape:groupmode="layer"
     id="layer8"
     inkscape:label="Door (Shut)"
     style="display:none"
     sodipodi:insensitive="true">
    <path
       style="opacity:1;fill:#8c5828;fill-opacity:1;stroke:none;stroke-width:0.26458332px;stroke-linecap:butt;stroke-linejoin:miter;stroke-opacity:1"
       d="m 96.06826,101.17698 26.8865,0.55782 -0.66937,62.02861 -27.66744,-0.22313 z"
       id="path866-2-0"
       inkscape:connector-curvature="0" />
    <ellipse
       style="display:inline;opacity:1;fill:#bfb300;fill-opacity:1;stroke:none;stroke-width:0.75014329;stroke-linecap:round;stroke-linejoin:round;stroke-miterlimit:4;stroke-dasharray:none;stroke-opacity:1"
       id="path1206-7-2-0"
       cx="95.97216"
       cy="134.87135"
       rx="1.8789226"
       ry="2.250448"
       transform="matrix(0.99965215,-0.02637385,0.03518482,0.99938082,0,0)" />
  </g>
  <g
     inkscape:label="Door (Open)"
     inkscape:groupmode="layer"
     id="layer1"
     transform="translate(364.30444,-15.571868)"
     style="display:inline;opacity:1"
     sodipodi:insensitive="true">
    <path
       style="fill:#8c5828;fill-opacity:1;stroke:none;stroke-width:0.26458332px;stroke-linecap:butt;stroke-linejoin:miter;stroke-opacity:1"
       d="m -241.87886,117.30667 19.18871,-5.68968 1.44926,0.4694 -2.2923,76.31342 -1.38821,0.41826 -17.62683,-9.48279 z"
       id="path868"
       inkscape:connector-curvature="0"
       sodipodi:nodetypes="ccccccc" />
  </g>
  <g
     inkscape:groupmode="layer"
     id="layer6"
     inkscape:label="Windows"
     sodipodi:insensitive="true"
     style="display:inline">
    <path
       inkscape:connector-curvature="0"
       id="path870"
       style="opacity:1;fill:#001d52;fill-opacity:1;stroke:#644900;stroke-width:2.76500034;stroke-linecap:butt;stroke-linejoin:miter;stroke-miterlimit:4;stroke-dasharray:none;stroke-opacity:1"
       d="m 170.48027,99.379812 12.04873,0.557811 -0.66938,21.085267 h -11.93716 z m 6.27657,0.366552 -0.59811,21.079076 m -5.45636,-10.54444 11.54018,-0.0962" />
    <path
       inkscape:connector-curvature="0"
       id="path872"
       style="opacity:1;fill:#001d52;fill-opacity:1;stroke:#644900;stroke-width:2.76500034;stroke-linecap:butt;stroke-linejoin:miter;stroke-miterlimit:4;stroke-dasharray:none;stroke-opacity:1"
       d="m 163.11716,99.268254 -11.8256,-0.33469 -0.55781,22.089326 11.93716,0.11157 z m -5.80637,-0.281361 -0.80672,21.942837 m 5.80839,-11.29411 -11.2941,-0.16134" />
    <path
       inkscape:connector-curvature="0"
       id="path874"
       style="opacity:1;fill:#001d52;fill-opacity:1;stroke:#644900;stroke-width:2.76500034;stroke-linecap:butt;stroke-linejoin:miter;stroke-miterlimit:4;stroke-dasharray:none;stroke-opacity:1"
       d="m 59.92208,95.140452 5.24343,0.55781 -0.11156,22.647128 -5.24343,-0.89248 z m -0.0633,10.945598 5.64706,1.29075" />
    <path
       inkscape:connector-curvature="0"
       id="path878"
       style="opacity:1;fill:#001d52;fill-opacity:1;stroke:#644900;stroke-width:2.76500034;stroke-linecap:butt;stroke-linejoin:miter;stroke-miterlimit:4;stroke-dasharray:none;stroke-opacity:1"
       d="m 157.9853,73.608932 20.41589,1.004062 1.22719,-23.20495 -20.86215,-1.561869 z m 0.4549,-11.247214 20.97477,0.968065 M 168.92758,50.744919 168.6049,73.978513" />
    <path
       style="opacity:1;fill:none;stroke:#644900;stroke-width:0.56500006;stroke-linecap:butt;stroke-linejoin:miter;stroke-miterlimit:4;stroke-dasharray:none;stroke-opacity:1"
       d="M 62.56129,96.203704 62.31927,117.94486"
       id="path920"
       inkscape:connector-curvature="0" />
  </g>
  <g
     inkscape:groupmode="layer"
     id="layer4"
     inkscape:label="Roof"
     sodipodi:insensitive="true"
     style="display:inline">
    <path
       style="opacity:1;fill:#8d7c53;fill-opacity:1;stroke:none;stroke-width:0.99999994px;stroke-linecap:butt;stroke-linejoin:miter;stroke-opacity:1"
       d="M 696.83008,-13.253906 528.07617,11.791016 448.76562,114.35547 197.125,96.466797 123.7793,330.81445 l 45.32031,15.50391 1.19141,-35.77734 47.10937,-100.7754 82.88672,134.76563 91.23437,-5.96484 75.22852,-82.52735 73.15625,24.78125 84.68555,-125.91406 57.41491,-87.499963 23.40149,-51.259803 z"
       id="path8"
       inkscape:connector-curvature="0"
       sodipodi:nodetypes="cccccccccccccccc"
       transform="scale(0.26458333)" />
    <path
       transform="translate(364.30445,-15.571868)"
       style="opacity:1;fill:#6d6040;fill-opacity:1;stroke:none;stroke-width:0.26458332px;stroke-linecap:butt;stroke-linejoin:miter;stroke-opacity:1"
       d="m -230.14657,70.189053 16.45712,33.478967 -44.69239,-1.37143 z"
       id="path882"
       inkscape:connector-curvature="0"
       sodipodi:nodetypes="cccc" />
    <path
       style="opacity:1;fill:#6d6040;fill-opacity:1;stroke:none;stroke-width:0.99999994px;stroke-linecap:butt;stroke-linejoin:miter;stroke-opacity:1"
       d="m 705.4082,16.146484 -80.8164,138.759766 54.94531,-81.695312 79.90625,281.457032 43.5293,-4.17383 z"
       id="path887"
       transform="scale(0.26458333)"
       inkscape:connector-curvature="0" />
  </g>
  <g
     inkscape:groupmode="layer"
     id="layer9"
     inkscape:label="Nepeta"
     style="display:inline"
     sodipodi:insensitive="true">
    <path
       style="fill:#78c94f;fill-opacity:1;stroke:none;stroke-width:0.26458332px;stroke-linecap:butt;stroke-linejoin:miter;stroke-opacity:1"
       d="m 57.487444,161.42296 c 0.788597,0.0902 1.511231,0.77397 2.395842,0 -1.336707,-0.79167 -1.518824,-2.9945 -1.93949,-4.90577 0.531797,0.47812 1.192772,0.37494 1.939491,-0.11409 -0.827636,-1.79927 -2.05119,-3.27248 -1.140877,-6.503 0.736927,0.34646 1.351641,1.30399 2.281754,0.68452 -1.753076,-1.73842 -2.470591,-4.02508 -2.395842,-6.73117 1.008426,0.94345 1.934409,2.00599 3.878982,1.59723 -0.394983,-1.04007 -1.485599,-1.89042 0.342263,-3.53672 0.776998,1.51288 1.477608,2.18053 1.597228,2.7381 1.373933,-0.20764 1.653537,-2.25973 3.878983,-3.53672 -0.152173,1.54838 0.716719,2.36742 1.254965,3.42264 0.773697,-0.80118 2.587605,-0.42578 3.650807,-1.25497 0.741686,0.76995 -0.125519,1.25279 0.114087,1.71132 1.940824,0.76258 2.852467,-0.0186 4.221246,-0.11409 0.381096,2.16871 -0.500916,2.69538 -1.140877,3.53672 1.105106,0.14007 1.703464,-0.42931 2.281754,-1.02679 0.229277,3.41179 -1.195601,4.06666 -2.167667,5.47621 1.185346,0.13984 2.217692,-0.33231 3.080369,-1.48314 -0.04205,3.33854 -1.456018,3.93323 -2.624018,5.01986 0.798614,0.48629 1.597228,0.37092 2.395842,0 0.166744,1.71559 -0.597504,2.78665 -1.825403,3.53672 0.684526,0.48833 1.369053,0.81205 2.053579,0.34226 -0.267658,1.94162 -1.404051,2.6284 -2.624018,3.19446 1.102848,0.44953 2.205696,0.41061 3.308544,0 -0.896193,2.66411 -2.734197,3.04097 -4.335333,3.99307 0.308915,0.58506 0.72751,0.62172 1.140877,0.68452 -1.216936,0.35788 -2.433871,0.34053 -3.650807,-0.79861 -0.207181,0.57328 -0.316692,1.13028 0.114088,1.59723 -1.639971,0.12812 -3.132087,-0.5816 -4.449421,-2.28176 0.574898,1.82465 -0.611926,2.27907 -1.939491,2.62402 0.0093,-0.95073 0.580349,-1.90146 0,-2.85219 -0.732334,2.04018 -2.458767,1.42943 -3.764895,1.93949 0.564138,-0.66709 0.863836,-1.40029 0.570439,-2.28176 -0.388891,0.99523 -1.139948,1.57656 -2.281755,1.71132 0.0047,0.007 0.122478,-0.0538 0.19476,-1.36678 -1.981647,-0.70109 -3.612974,-2.07096 -4.416006,-5.02213 z"
       id="path53"
       inkscape:connector-curvature="0"
       sodipodi:nodetypes="ccccccccccccccccccccccccccccccccccccc" />
    <path
       style="fill:#f1d4e1;fill-opacity:1;stroke:none;stroke-width:0.26458332px;stroke-linecap:butt;stroke-linejoin:miter;stroke-opacity:1"
       d="m 66.507869,148.47158 c 0,0 -0.560774,-0.56869 -0.80611,-0.39689 -0.279761,0.1959 0.110954,1.01857 0.110954,1.01857 0,0 -0.679512,0.59446 -0.510261,0.8924 0.227833,0.40107 1.383558,0.0251 1.383558,0.0251 0,0 0.760916,0.50131 1.012284,0.26009 0.194377,-0.18653 -0.168716,-0.79039 -0.168716,-0.79039 0,0 0.524294,-0.36447 0.453937,-0.60718 -0.06336,-0.21858 -0.637881,-0.2434 -0.637881,-0.2434 0,0 -0.02162,-0.67249 -0.274819,-0.72635 -0.26074,-0.0555 -0.562946,0.56802 -0.562946,0.56802 z"
       id="path871"
       inkscape:connector-curvature="0"
       sodipodi:nodetypes="cacacacacac" />
    <path
       style="fill:#f1d4e1;fill-opacity:1;stroke:none;stroke-width:0.26458332px;stroke-linecap:butt;stroke-linejoin:miter;stroke-opacity:1"
       d="m 74.135836,153.18812 0.213331,0.97853 1.547151,-0.1677 c 0.09618,-0.39368 -0.201312,-0.37056 -0.242266,-0.57423 -0.06093,-0.30301 0.257554,-0.75309 0.0022,-0.92721 -0.133184,-0.0908 -0.301227,0.24028 -0.449788,0.17769 -0.140765,-0.0593 -0.03315,-0.4141 -0.177228,-0.42258 z"
       id="path873"
       inkscape:connector-curvature="0"
       sodipodi:nodetypes="cccaaacc" />
    <path
       style="fill:#f1d4e1;fill-opacity:1;stroke:none;stroke-width:0.26458332px;stroke-linecap:butt;stroke-linejoin:miter;stroke-opacity:1"
       d="m 63.517205,155.93961 c 0,0 -0.88776,-0.43214 -1.207228,-0.78493 -0.143921,0.0506 -0.02368,0.33979 -0.14309,0.43474 -0.168356,0.13387 -0.524097,-0.121 -0.642629,0.0585 -0.144837,0.21932 0.252388,0.4876 0.242603,0.75025 -0.0069,0.18536 -0.320746,0.36636 -0.210139,0.51527 0.543198,-0.10118 1.865886,-0.17626 1.865886,-0.17626 z"
       id="path875"
       inkscape:connector-curvature="0"
       sodipodi:nodetypes="ccaaaccc" />
    <path
       style="fill:#f1d4e1;fill-opacity:1;stroke:none;stroke-width:0.17752066px;stroke-linecap:butt;stroke-linejoin:miter;stroke-opacity:1"
       d="m 72.812314,158.95842 c 0,0 0.281954,-0.45568 0.131085,-0.58843 -0.172035,-0.15137 -0.646514,0.23367 -0.646514,0.23367 0,0 -0.495204,-0.34887 -0.662647,-0.19133 -0.225404,0.21207 0.202776,0.90603 0.202776,0.90603 0,0 -0.206324,0.5755 -0.0092,0.70118 0.152401,0.0972 0.488596,-0.23519 0.488596,-0.23519 0,0 0.32067,0.2841 0.467768,0.19979 0.132475,-0.0759 0.05766,-0.45444 0.05766,-0.45444 0,0 0.435026,-0.12061 0.430038,-0.29422 -0.0051,-0.17879 -0.459503,-0.27707 -0.459503,-0.27707 z"
       id="path871-9"
       inkscape:connector-curvature="0"
       sodipodi:nodetypes="cacacacacac" />
    <path
       style="fill:#f1d4e1;fill-opacity:1;stroke:none;stroke-width:0.12294142px;stroke-linecap:butt;stroke-linejoin:miter;stroke-opacity:1"
       d="m 65.221358,164.52537 c 0,0 0.231034,0.29042 0.352868,0.22315 0.138924,-0.0767 -10e-4,-0.47609 -10e-4,-0.47609 0,0 0.343284,-0.24114 0.279782,-0.38715 -0.08548,-0.19654 -0.638013,-0.0798 -0.638013,-0.0798 0,0 -0.326833,-0.26916 -0.454883,-0.17009 -0.09902,0.0766 0.03896,0.37352 0.03896,0.37352 0,0 -0.260221,0.14252 -0.239691,0.25814 0.01847,0.10411 0.282715,0.14393 0.282715,0.14393 0,0 -0.02319,0.31178 0.09114,0.34915 0.117731,0.0385 0.288129,-0.23467 0.288129,-0.23467 z"
       id="path871-9-3"
       inkscape:connector-curvature="0"
       sodipodi:nodetypes="cacacacacac" />
    <path
       style="fill:#f1d4e1;fill-opacity:1;stroke:none;stroke-width:0.23253043px;stroke-linecap:butt;stroke-linejoin:miter;stroke-opacity:1"
       d="m 74.040804,163.95204 c 0,0 0.647167,-0.48588 0.873999,-0.86521 0.108621,0.0463 0.02805,0.35118 0.119798,0.44448 0.129357,0.13156 0.38618,-0.14784 0.479871,0.0331 0.114483,0.22112 -0.172788,0.51618 -0.157445,0.788 0.01083,0.19183 0.249864,0.366 0.172152,0.52507 -0.407212,-0.0816 -1.393512,-0.10291 -1.393512,-0.10291 z"
       id="path875-3"
       inkscape:connector-curvature="0"
       sodipodi:nodetypes="ccaaaccc" />
  </g>
  <g
     inkscape:groupmode="layer"
     id="layer2"
     inkscape:label="Shrubs"
     sodipodi:insensitive="true"
     style="display:inline">
    <path
       transform="translate(364.30445,-15.571868)"
       style="opacity:1;fill:#1b5622;fill-opacity:1;stroke:none;stroke-width:0.32349008px;stroke-linecap:butt;stroke-linejoin:miter;stroke-opacity:1"
       d="m -95.673466,181.86849 c -3.231388,-0.015 -6.396194,1.49866 -9.616224,1.2276 -1.87038,-0.15744 -3.53795,-1.31891 -5.38783,-1.6368 -1.97367,-0.33916 -4.17435,0.54668 -6.00161,-0.27279 -2.37631,-1.06572 -4.15298,-3.3375 -5.45602,-5.59243 -0.92181,-1.5952 -2.3762,-2.64677 -1.50041,-5.31962 0.34063,0.32272 0.68727,0.57317 1.09119,0.13641 -0.23095,-2.09095 -2.59922,-3.86758 -0.68198,-6.27443 -0.0602,0.18062 0.71039,0.87822 0.68198,0.1364 -0.0202,-0.52687 -0.57667,-8.79868 0.13641,-9.00242 0.13363,0.65584 0.11836,1.37121 0.54561,1.9096 0.49863,-3.81898 -2.85369,-7.05053 1.50041,-11.45763 0.12202,0.50083 0.32418,0.87132 0.95481,0.5456 0.5117,-3.27904 -0.32557,-6.77392 1.63679,-9.82084 0.14602,0.68496 0.56726,1.12909 1.22762,1.36401 0.39939,-3.45352 -0.68652,-6.60997 1.22758,-10.36643 0.28978,0.61956 0.89887,0.91981 1.63683,1.09119 0.42489,-3.31487 0.42938,-6.68707 2.18239,-9.82083 0.23852,0.99066 0.74752,1.4742 1.50041,1.50041 0.90038,-4.31963 -0.13424,-8.69973 2.72799,-12.95805 0.34925,1.10178 0.89741,2.0256 2.45524,2.04602 0.30138,-1.82078 -0.5965,-4.01373 1.36398,-5.31962 0.99196,1.04828 2.3207,1.62507 3.955613,1.7732 0.634183,-2.07707 2.450635,-2.58766 3.955643,-4.09201 0.169385,1.17857 1.357216,2.31085 0.272796,3.54641 1.788306,1.36346 3.372492,0.27738 5.0468,0.2728 -0.584263,1.27988 -0.835968,2.89231 -2.31881,3.27361 1.862508,0.87094 3.550265,2.49917 5.592428,2.59161 0.941066,1.77321 1.252582,3.54641 1.636797,5.31962 0.580338,-0.011 0.58282,-0.59931 0.818398,-0.95481 0.842301,3.20426 2.428395,5.66471 2.455232,9.68443 0.830393,-0.43597 1.023741,-1.38158 1.227579,-2.31879 0.909339,3.22813 4.183262,6.65332 2.728015,9.68442 0.818399,0.88066 1.636797,0.0984 2.455196,-0.4092 0.65712,3.37451 3.844945,7.22716 1.09123,9.95723 1.082855,0.99984 1.713359,-0.48827 2.455195,-1.364 0.335517,3.41882 1.461739,7.08092 -0.409181,9.82083 0.898848,0.78009 1.594103,-0.0687 2.318773,-0.682 0.33103,3.27767 0.690303,6.59435 -1.636796,8.45683 1.318531,0.69405 2.637075,0.39673 3.955606,-1.09121 -0.174825,4.01164 -1.824447,5.81106 -3.000786,8.32043 1.500399,0.40424 3.000798,-0.38414 4.501197,-1.2276 -1.590189,1.87103 -3.14661,3.94466 -4.910414,4.77401 2.024997,2.07238 4.444931,2.36754 6.820043,2.86442 -2.775637,2.79304 -5.635758,4.57231 -8.59325,5.18321 1.393161,1.01228 3.251317,1.24958 5.18321,1.364 0,0 -7.191555,3.35168 -11.048421,4.09201 -2.724567,0.523 -5.55043,0.35942 -8.320406,0.20461 -2.840889,-0.15878 -5.611562,-1.14622 -8.456853,-1.15941 z"
       id="path876-3"
       inkscape:connector-curvature="0"
       sodipodi:nodetypes="aaaaacccscccccccccccccccccccccccccccccccccccccaaa" />
    <path
       transform="translate(364.30445,-15.571868)"
       style="opacity:1;fill:#26752e;fill-opacity:1;stroke:none;stroke-width:0.26458332px;stroke-linecap:butt;stroke-linejoin:miter;stroke-opacity:1"
       d="m -134.58461,191.03713 c 2.64296,-0.0123 5.23146,1.22576 7.86513,1.00406 1.52979,-0.12877 2.8937,-1.07874 4.40672,-1.33874 1.61427,-0.2774 3.41421,0.44713 4.90873,-0.22312 1.94359,-0.87165 3.39673,-2.72975 4.46249,-4.57406 0.75395,-1.30472 1.9435,-2.1648 1.22719,-4.35093 -0.2786,0.26395 -0.56212,0.4688 -0.89249,0.11157 0.1889,-1.71019 2.12591,-3.1633 0.5578,-5.13187 0.0492,0.14773 -0.58103,0.7183 -0.5578,0.11156 0.0165,-0.43093 0.47166,-7.19646 -0.11157,-7.3631 -0.10929,0.53641 -0.0968,1.12152 -0.44625,1.56187 -0.40783,-3.12356 2.33404,-5.76665 -1.22719,-9.37123 -0.0998,0.40963 -0.26515,0.71266 -0.78094,0.44625 -0.41852,-2.68193 0.26628,-5.5404 -1.33874,-8.03249 -0.11943,0.56023 -0.46396,0.92349 -1.00407,1.11563 -0.32666,-2.82464 0.56151,-5.40631 -1.00404,-8.47873 -0.23701,0.50674 -0.73519,0.75232 -1.33877,0.89249 -0.34752,-2.71124 -0.35119,-5.46937 -1.78498,-8.03248 -0.19509,0.81026 -0.6114,1.20575 -1.22719,1.22719 -0.73642,-3.53304 0.1098,-7.11553 -2.23123,-10.59842 -0.28565,0.90115 -0.73399,1.65674 -2.00814,1.67344 -0.2465,-1.48922 0.48787,-3.28284 -1.11561,-4.35093 -0.81132,0.85739 -1.8981,1.32915 -3.2353,1.45031 -0.5187,-1.69884 -2.00438,-2.11646 -3.23533,-3.34687 -0.13854,0.96396 -1.11007,1.89005 -0.22312,2.90062 -1.46266,1.11518 -2.75837,0.22687 -4.12779,0.22312 0.47787,1.04682 0.68374,2.36563 1.89656,2.6775 -1.52335,0.71234 -2.90377,2.04407 -4.57406,2.11968 -0.7697,1.45031 -1.02449,2.90062 -1.33874,4.35093 -0.47466,-0.009 -0.47669,-0.49018 -0.66937,-0.78094 -0.68892,2.62077 -1.98619,4.63318 -2.00814,7.92092 -0.67918,-0.35658 -0.83732,-1.13 -1.00404,-1.89655 -0.74375,2.6403 -3.4215,5.44177 -2.23125,7.92091 -0.66937,0.7203 -1.33874,0.0805 -2.00811,-0.33468 -0.53746,2.76002 -3.14479,5.91111 -0.89252,8.14404 -0.88567,0.81777 -1.40136,-0.39936 -2.00811,-1.11562 -0.27442,2.79626 -1.19556,5.7915 0.33467,8.03248 -0.73517,0.63804 -1.30382,-0.0562 -1.89653,-0.55781 -0.27075,2.68082 -0.5646,5.39354 1.33874,6.91686 -1.07843,0.56767 -2.15687,0.32449 -3.2353,-0.8925 0.14299,3.28113 1.49222,4.75288 2.45435,6.8053 -1.22718,0.33063 -2.45436,-0.31419 -3.68154,-1.00406 1.30062,1.53032 2.57362,3.22635 4.01624,3.90468 -1.65625,1.695 -3.63552,1.93641 -5.57813,2.34281 2.2702,2.28444 4.6095,3.73971 7.02844,4.23936 -1.13947,0.82795 -2.65926,1.02204 -4.23936,1.11562 0,0 5.88199,2.74135 9.03653,3.34687 2.22843,0.42776 4.53971,0.29397 6.80528,0.16735 2.32357,-0.12987 4.58971,-0.9375 6.91688,-0.94829 z"
       id="path876"
       inkscape:connector-curvature="0"
       sodipodi:nodetypes="aaaaacccscccccccccccccccccccccccccccccccccccccaaa" />
    <path
       transform="translate(364.30445,-15.571868)"
       style="opacity:1;fill:#1b5621;fill-opacity:1;stroke:none;stroke-width:0.26458332px;stroke-linecap:butt;stroke-linejoin:miter;stroke-opacity:1"
       d="m -319.35388,196.97135 c 3.64056,-0.70908 7.66744,-0.86571 10.72425,-2.96628 1.79283,-1.23199 2.92627,-3.29243 3.87898,-5.24803 2.24669,-4.61171 4.23949,-9.70325 4.10716,-14.83141 -0.11168,-4.32788 -2.52888,-8.29008 -4.10716,-12.32147 -2.22132,-5.6739 -5.88148,-15.24397 -7.52979,-16.65681 -0.32297,1.26489 0.0466,3.56858 -1.36905,3.19446 -0.19366,-7.86963 -2.84589,-10.52869 -4.56351,-18.02586 -0.70389,1.61519 -1.17211,3.93742 -2.73811,2.96628 -1.00684,-7.73159 -5.96587,-11.14388 -10.95242,-15.51593 1.10658,5.15068 -0.21436,6.48669 -1.14088,8.44249 1.12216,-5.0987 -9.57213,-1.08705 -14.14687,-4.79168 -2.11211,2.38948 0.47677,8.06685 -1.36905,10.72424 -2.22558,-5.71798 -6.42828,-5.32129 -12.0933,-12.77782 -4.54843,1.19585 -6.99472,7.37068 -5.93256,13.006 -7.04189,-0.23103 -12.12278,-1.90012 -14.60323,-5.47621 -2.6613,6.60429 -0.18283,12.57045 -1.36905,18.71038 -2.08974,10.81665 -11.54572,20.57496 -10.03972,31.48821 1.13331,8.21255 7.05311,15.79656 13.69052,20.76397 3.12047,2.33534 7.28312,3.39436 11.1806,3.42263 4.91021,0.0356 9.23945,-4.27626 14.14688,-4.10716 2.42886,0.0837 4.42031,2.34871 6.84526,2.50993 2.79872,0.18608 5.41491,-1.64994 8.21431,-1.8254 2.43976,-0.15292 4.85721,0.71068 7.30162,0.68452 3.98105,-0.0426 7.95727,-0.60791 11.86512,-1.36905 z"
       id="path949"
       inkscape:connector-curvature="0"
       sodipodi:nodetypes="aaaaacccccccccccaaaaaaaaa" />
  </g>
</svg>
